[
    {
        "id": "163fe75f.4d4f69",
        "type": "tab",
        "label": "Approve Task",
        "disabled": false,
        "info": ""
    },
    {
        "id": "2be5d88d.174e58",
        "type": "inject",
        "z": "163fe75f.4d4f69",
        "name": "",
        "props": [
            {
                "p": "payload"
            },
            {
                "p": "topic",
                "vt": "str"
            }
        ],
        "repeat": "",
        "crontab": "",
        "once": false,
        "onceDelay": 0.1,
        "topic": "",
        "payload": "{\"XReference\":\"mytaskref\",\"XStep\":\"qa_out\",\"XAnalysisMode\":\"F\"}",
        "payloadType": "json",
        "x": 120,
        "y": 80,
        "wires": [
            [
                "52d98e6b.65061"
            ]
        ]
    },
    {
        "id": "4c678ae4.2ef014",
        "type": "debug",
        "z": "163fe75f.4d4f69",
        "name": "",
        "active": true,
        "tosidebar": true,
        "console": false,
        "tostatus": false,
        "complete": "false",
        "statusVal": "",
        "statusType": "auto",
        "x": 660,
        "y": 80,
        "wires": []
    },
    {
        "id": "52d98e6b.65061",
        "type": "approve-task",
        "z": "163fe75f.4d4f69",
        "name": "",
        "activecontrol": "d9126569.213d58",
        "x": 390,
        "y": 80,
        "wires": [
            [
                "4c678ae4.2ef014"
            ]
        ]
    },
    {
        "id": "d9126569.213d58",
        "type": "ac_config",
        "z": "",
        "name": "acserver",
        "url": "https://sapserver:44300/sap/bc/srt/rfc/bti/te_task_ws/100/my/endpoint",
        "systemnumber": "11"
    }
]