[
    {
        "id": "683ad8a5.0ed728",
        "type": "tab",
        "label": "Change Task",
        "disabled": false,
        "info": ""
    },
    {
        "id": "b0631ff9.a4ef6",
        "type": "inject",
        "z": "683ad8a5.0ed728",
        "name": "",
        "props": [
            {
                "p": "payload"
            },
            {
                "p": "topic",
                "vt": "str"
            }
        ],
        "repeat": "",
        "crontab": "",
        "once": false,
        "onceDelay": 0.1,
        "topic": "",
        "payload": "{\"XTask\":{\"ID\":\"10017102000000000194\",\"CAPTION\":\"short description\",\"REFERENCE\":\"requirement\",\"GROUPID\":\"10017100600000000014\",\"TYPEID\":\"\",\"TESTERID\":\"JDOE\",\"PRIORITY\":\"2\",\"PROJECTID\":\"10012012300000012123\",\"LOCKED\":\"\",\"PATH\":\"00\",\"STAT_DEPL\":\"10017100600000000025\",\"STAT_PLAN\":\"\",\"STAT_DEPL_MAN\":\"\",\"STAT_PLAN_MAN\":\"\",\"OWNER\":\"\",\"TEXT\":\"\",\"CF_500\":\"\",\"CF_501\":\"\",\"CF_502\":\"\",\"CF_503\":\"\",\"CF_504\":\"\",\"CF_505\":\"\",\"CF_506\":\"\",\"CF_507\":\"\",\"CF_508\":\"\",\"CF_509\":\"\",\"CF_510\":\"\",\"CF_511\":\"\",\"CF_512\":\"\",\"CF_513\":\"\",\"CF_514\":\"\",\"CF_515\":\"\",\"CF_516\":\"\",\"CF_517\":\"\",\"CF_518\":\"\",\"CF_519\":\"\",\"CF_520\":\"\",\"CF_521\":\"\",\"CF_522\":\"\",\"CF_523\":\"\",\"CF_524\":\"\",\"CF_525\":\"\",\"CF_526\":\"\",\"CF_527\":\"\",\"CF_528\":\"\",\"CF_529\":\"\",\"CF_530\":\"\",\"CF_531\":\"\",\"CF_532\":\"\",\"CF_533\":\"\",\"CF_534\":\"\",\"CF_535\":\"\",\"CF_536\":\"\",\"CF_537\":\"\",\"CF_538\":\"\",\"CF_539\":\"\",\"CF_540\":\"\",\"CF_541\":\"\",\"CF_542\":\"\",\"CF_543\":\"\",\"CF_544\":\"\",\"CF_545\":\"\",\"CF_546\":\"\",\"CF_547\":\"\",\"CF_548\":\"\",\"CF_549\":\"\",\"CF_550\":\"\",\"description\":\"foo\",\"customFields\":[{\"Id\":\"518\",\"Value\":\"Y\"}],\"testers\":[{\"Testerid\":\"JDOE\",\"Targetroleid\":\"\",\"Targetid\":\"0000\",\"Systemid\":\"\",\"Mandt\":\"\",\"SmtpAddr\":\"\",\"Testername\":\"JDOE\"}]},\"XUpddateTask\":true,\"XUpdateCustfields\":false,\"XUpdateDesc\":false,\"XUpdateTesters\":false}",
        "payloadType": "json",
        "x": 260,
        "y": 80,
        "wires": [
            [
                "ef201ce7.51ec3"
            ]
        ]
    },
    {
        "id": "14434ef7.ad7ba1",
        "type": "debug",
        "z": "683ad8a5.0ed728",
        "name": "",
        "active": true,
        "tosidebar": true,
        "console": false,
        "tostatus": false,
        "complete": "false",
        "statusVal": "",
        "statusType": "auto",
        "x": 770,
        "y": 80,
        "wires": []
    },
    {
        "id": "ef201ce7.51ec3",
        "type": "change-task",
        "z": "683ad8a5.0ed728",
        "name": "",
        "activecontrol": "d9126569.213d58",
        "x": 490,
        "y": 80,
        "wires": [
            [
                "14434ef7.ad7ba1"
            ]
        ]
    },
    {
        "id": "d9126569.213d58",
        "type": "ac_config",
        "z": "",
        "name": "acserver",
        "url": "https://sapserver:44300/sap/bc/srt/rfc/bti/te_task_ws/100/my/endpoint",
        "systemnumber": "11"
    }
]