[
    {
        "id": "6ed7a630.8076f8",
        "type": "tab",
        "label": "ActiveControl - Read Task",
        "disabled": false,
        "info": ""
    },
    {
        "id": "ff1d588a.da2608",
        "type": "inject",
        "z": "6ed7a630.8076f8",
        "name": "Inject",
        "props": [
            {
                "p": "payload"
            }
        ],
        "repeat": "",
        "crontab": "",
        "once": false,
        "onceDelay": 0.1,
        "topic": "",
        "payload": "{\"XTaskid\":\"10017102000000000194\"}",
        "payloadType": "json",
        "x": 330,
        "y": 240,
        "wires": [
            [
                "1646f915.eed3e7"
            ]
        ]
    },
    {
        "id": "73744c98.b7c034",
        "type": "debug",
        "z": "6ed7a630.8076f8",
        "name": "",
        "active": true,
        "tosidebar": true,
        "console": false,
        "tostatus": false,
        "complete": "payload",
        "targetType": "msg",
        "statusVal": "",
        "statusType": "auto",
        "x": 770,
        "y": 240,
        "wires": []
    },
    {
        "id": "1646f915.eed3e7",
        "type": "read-task",
        "z": "6ed7a630.8076f8",
        "name": "",
        "activecontrol": "8400655a.cc5098",
        "x": 540,
        "y": 240,
        "wires": [
            [
                "73744c98.b7c034"
            ]
        ]
    },
    {
        "id": "8400655a.cc5098",
        "type": "ac_config",
        "z": "",
        "name": "readtask server",
        "url": "https://sapserver:44300/sap/bc/srt/rfc/bti/te_task_ws/100/my/endpoint",
        "systemnumber": "01"
    }
]