{
  "packages": [
    "packages/*"
  ],
  "version": "independent",
  "command": {
    "publish": {
      "ignoreChanges": [
        "*.md"
      ]
    },
    "version": {
      "amend": false,
      "no-git-tag-version": true
    }
  }
}