[
    {
        "id": "af07360c.375018",
        "type": "change",
        "name": "Create Task field mapping (IN)",
        "rules": [
            {
                "t": "set",
                "p": "payload.ID",
                "pt": "msg",
                "to": "",
                "tot": "str"
            },
            {
                "t": "set",
                "p": "payload.CAPTION",
                "pt": "msg",
                "to": "",
                "tot": "msg"
            },
            {
                "t": "set",
                "p": "payload.REFERENCE",
                "pt": "msg",
                "to": "",
                "tot": "msg"
            },
            {
                "t": "set",
                "p": "payload.GROUPID",
                "pt": "msg",
                "to": "",
                "tot": "msg"
            },
            {
                "t": "set",
                "p": "payload.TYPEID",
                "pt": "msg",
                "to": "",
                "tot": "msg"
            },
            {
                "t": "set",
                "p": "payload.PRIORITY",
                "pt": "msg",
                "to": "",
                "tot": "msg"
            },
            {
                "t": "set",
                "p": "payload.PROJECTID",
                "pt": "msg",
                "to": "",
                "tot": "msg"
            },
            {
                "t": "set",
                "p": "payload.PATH",
                "pt": "msg",
                "to": "",
                "tot": "msg"
            },
            {
                "t": "set",
                "p": "payload.LOCKED",
                "pt": "msg",
                "to": "",
                "tot": "str"
            },
            {
                "t": "set",
                "p": "payload.TESTERID",
                "pt": "msg",
                "to": "",
                "tot": "str"
            },
            {
                "t": "set",
                "p": "payload.STAT_DEPL",
                "pt": "msg",
                "to": "",
                "tot": "str"
            },
            {
                "t": "set",
                "p": "payload.STAT_PLAN",
                "pt": "msg",
                "to": "",
                "tot": "str"
            },
            {
                "t": "set",
                "p": "payload.STAT_DEPL_MAN",
                "pt": "msg",
                "to": "",
                "tot": "str"
            },
            {
                "t": "set",
                "p": "payload.STAT_PLAN_MAN",
                "pt": "msg",
                "to": "",
                "tot": "str"
            },
            {
                "t": "set",
                "p": "payload.OWNER",
                "pt": "msg",
                "to": "",
                "tot": "str"
            },
            {
                "t": "set",
                "p": "payload.TEXT",
                "pt": "msg",
                "to": "",
                "tot": "str"
            },
            {
                "t": "set",
                "p": "payload.DESCRIPTION",
                "pt": "msg",
                "to": "",
                "tot": "msg"
            },
            {
                "t": "set",
                "p": "payload.customFields",
                "pt": "msg",
                "to": "[]",
                "tot": "json"
            },
            {
                "t": "set",
                "p": "payload.testers",
                "pt": "msg",
                "to": "[]",
                "tot": "json"
            },
            {
                "t": "set",
                "p": "payload.CF_500",
                "pt": "msg",
                "to": "",
                "tot": "str"
            },
            {
                "t": "set",
                "p": "payload.CF_501",
                "pt": "msg",
                "to": "",
                "tot": "str"
            },
            {
                "t": "set",
                "p": "payload.CF_502",
                "pt": "msg",
                "to": "",
                "tot": "str"
            },
            {
                "t": "set",
                "p": "payload.CF_503",
                "pt": "msg",
                "to": "",
                "tot": "str"
            },
            {
                "t": "set",
                "p": "payload.CF_504",
                "pt": "msg",
                "to": "",
                "tot": "str"
            },
            {
                "t": "set",
                "p": "payload.CF_505",
                "pt": "msg",
                "to": "",
                "tot": "str"
            },
            {
                "t": "set",
                "p": "payload.CF_506",
                "pt": "msg",
                "to": "",
                "tot": "str"
            },
            {
                "t": "set",
                "p": "payload.CF_507",
                "pt": "msg",
                "to": "",
                "tot": "str"
            },
            {
                "t": "set",
                "p": "payload.CF_508",
                "pt": "msg",
                "to": "",
                "tot": "str"
            },
            {
                "t": "set",
                "p": "payload.CF_509",
                "pt": "msg",
                "to": "",
                "tot": "str"
            },
            {
                "t": "set",
                "p": "payload.CF_510",
                "pt": "msg",
                "to": "",
                "tot": "str"
            },
            {
                "t": "set",
                "p": "payload.CF_511",
                "pt": "msg",
                "to": "",
                "tot": "str"
            },
            {
                "t": "set",
                "p": "payload.CF_512",
                "pt": "msg",
                "to": "",
                "tot": "str"
            },
            {
                "t": "set",
                "p": "payload.CF_513",
                "pt": "msg",
                "to": "",
                "tot": "str"
            },
            {
                "t": "set",
                "p": "payload.CF_514",
                "pt": "msg",
                "to": "",
                "tot": "str"
            },
            {
                "t": "set",
                "p": "payload.CF_515",
                "pt": "msg",
                "to": "",
                "tot": "str"
            },
            {
                "t": "set",
                "p": "payload.CF_516",
                "pt": "msg",
                "to": "",
                "tot": "str"
            },
            {
                "t": "set",
                "p": "payload.CF_517",
                "pt": "msg",
                "to": "",
                "tot": "str"
            },
            {
                "t": "set",
                "p": "payload.CF_518",
                "pt": "msg",
                "to": "",
                "tot": "str"
            },
            {
                "t": "set",
                "p": "payload.CF_519",
                "pt": "msg",
                "to": "",
                "tot": "str"
            },
            {
                "t": "set",
                "p": "payload.CF_520",
                "pt": "msg",
                "to": "",
                "tot": "str"
            },
            {
                "t": "set",
                "p": "payload.CF_521",
                "pt": "msg",
                "to": "",
                "tot": "str"
            },
            {
                "t": "set",
                "p": "payload.CF_522",
                "pt": "msg",
                "to": "",
                "tot": "str"
            },
            {
                "t": "set",
                "p": "payload.CF_523",
                "pt": "msg",
                "to": "",
                "tot": "str"
            },
            {
                "t": "set",
                "p": "payload.CF_524",
                "pt": "msg",
                "to": "",
                "tot": "str"
            },
            {
                "t": "set",
                "p": "payload.CF_525",
                "pt": "msg",
                "to": "",
                "tot": "str"
            },
            {
                "t": "set",
                "p": "payload.CF_526",
                "pt": "msg",
                "to": "",
                "tot": "str"
            },
            {
                "t": "set",
                "p": "payload.CF_527",
                "pt": "msg",
                "to": "",
                "tot": "str"
            },
            {
                "t": "set",
                "p": "payload.CF_528",
                "pt": "msg",
                "to": "",
                "tot": "str"
            },
            {
                "t": "set",
                "p": "payload.CF_529",
                "pt": "msg",
                "to": "",
                "tot": "str"
            },
            {
                "t": "set",
                "p": "payload.CF_530",
                "pt": "msg",
                "to": "",
                "tot": "str"
            },
            {
                "t": "set",
                "p": "payload.CF_531",
                "pt": "msg",
                "to": "",
                "tot": "str"
            },
            {
                "t": "set",
                "p": "payload.CF_532",
                "pt": "msg",
                "to": "",
                "tot": "str"
            },
            {
                "t": "set",
                "p": "payload.CF_533",
                "pt": "msg",
                "to": "",
                "tot": "str"
            },
            {
                "t": "set",
                "p": "payload.CF_534",
                "pt": "msg",
                "to": "",
                "tot": "str"
            },
            {
                "t": "set",
                "p": "payload.CF_535",
                "pt": "msg",
                "to": "",
                "tot": "str"
            },
            {
                "t": "set",
                "p": "payload.CF_536",
                "pt": "msg",
                "to": "",
                "tot": "str"
            },
            {
                "t": "set",
                "p": "payload.CF_537",
                "pt": "msg",
                "to": "",
                "tot": "str"
            },
            {
                "t": "set",
                "p": "payload.CF_538",
                "pt": "msg",
                "to": "",
                "tot": "str"
            },
            {
                "t": "set",
                "p": "payload.CF_539",
                "pt": "msg",
                "to": "",
                "tot": "str"
            },
            {
                "t": "set",
                "p": "payload.CF_540",
                "pt": "msg",
                "to": "",
                "tot": "str"
            },
            {
                "t": "set",
                "p": "payload.CF_541",
                "pt": "msg",
                "to": "",
                "tot": "str"
            },
            {
                "t": "set",
                "p": "payload.CF_542",
                "pt": "msg",
                "to": "",
                "tot": "str"
            },
            {
                "t": "set",
                "p": "payload.CF_543",
                "pt": "msg",
                "to": "",
                "tot": "str"
            },
            {
                "t": "set",
                "p": "payload.CF_544",
                "pt": "msg",
                "to": "",
                "tot": "str"
            },
            {
                "t": "set",
                "p": "payload.CF_545",
                "pt": "msg",
                "to": "",
                "tot": "str"
            },
            {
                "t": "set",
                "p": "payload.CF_546",
                "pt": "msg",
                "to": "",
                "tot": "str"
            },
            {
                "t": "set",
                "p": "payload.CF_547",
                "pt": "msg",
                "to": "",
                "tot": "str"
            },
            {
                "t": "set",
                "p": "payload.CF_548",
                "pt": "msg",
                "to": "",
                "tot": "str"
            },
            {
                "t": "set",
                "p": "payload.CF_549",
                "pt": "msg",
                "to": "",
                "tot": "str"
            },
            {
                "t": "set",
                "p": "payload.CF_550",
                "pt": "msg",
                "to": "",
                "tot": "str"
            }
        ],
        "action": "",
        "property": "",
        "from": "",
        "to": "",
        "reg": false,
        "x": 370,
        "y": 220,
        "wires": []
    }
]